{
  "documents_api_path": "https://{projectname}.si-portal.it/documents/api/v1/documents",
  "folders_api_path": "https://{projectname}.si-portal.it/documents/api/v1/folders",
  "usergroups_api_path": "https://{projectname}.si-portal.it/documents/api/v1/groups",
  "keycloakUrl": "https://sso.si-portal.it/auth",
  "keycloakRealm": "{projectname}",
  "keycloakClientId": "documents-ng"
}
